(page_layout
  (setup (textsize 1.5 1.5)(linewidth 0.5)(textlinewidth 0.15)
  (left_margin 20)(right_margin 5)(top_margin 5)(bottom_margin 5))
  (line (name segm1:Line) (start -0.011 200) (end 272 200))
  (line (name segm2:Line) (start -0.011 200) (end -0.011 0.002))
  (line (name segm3:Line) (start -0.011 0.002) (end 272 0.002))
  (line (name segm4:Line) (start 119.989 0.002200000000016189) (end 119.989 55.00220000000002))
  (line (name segm5:Line) (start 129.989 0.002200000000016189) (end 129.989 55.00220000000002))
  (line (name segm6:Line) (start 144.989 0.002200000000016189) (end 144.989 55.00220000000002))
  (line (name segm7:Line) (start 272 0) (end 272 200))
  (rect (name rect1:Rect) (start -0.0110000000000241 0.002200000000016189) (end 184.989 55.00220000000002))
  (line (name segm8:Line) (start 29.98899999999998 20.00220000000002) (end 29.98899999999998 15.00220000000002))
  (line (name segm9:Line) (start 17.98899999999998 40.00220000000002) (end 17.98899999999998 20.00220000000002))
  (line (name segm10:Line) (start 34.98899999999998 40.00220000000002) (end 34.98899999999998 20.00220000000002))
  (line (name segm11:Line) (start 49.989 40.002) (end 49.989 0))
  (line (name segm12:Line) (start 119.989 15.00220000000002) (end -0.0110000000000241 15.00220000000002))
  (line (name segm13:Line) (start 119.989 40.00220000000002) (end -0.0110000000000241 40.00220000000002))
  (line (name segm14:Line) (start 184.989 30.00220000000002) (end 119.989 30.00220000000002))
  (line (name segm15:Line) (start 184.989 35.00220000000002) (end 119.989 35.00220000000002))
  (line (name segm16:Line) (start 167.989 55.00220000000002) (end 167.989 0.002200000000016189))
  (line (name segm17:Line) (start 177.989 55.00220000000002) (end 177.989 30.00220000000002))
  (line (name segm18:Line) (start 49.98899999999998 20.00220000000002) (end -0.0110000000000241 20.00220000000002))
  (line (name segm19:Line) (start 49.98899999999998 35.00220000000002) (end -0.0110000000000241 35.00220000000002))
  (line (name segm20:Line) (start 184.989 5.002) (end 119.989 5.002) (linewidth 0.2) (repeat 5) (incry 5))
  (tbtext Разраб. (name text1:Text) (pos 184 26) (font (size 2 2) italic) (justify bottom))
  (tbtext Лист (name text2:Text) (pos 176.5 31.5) (font (size 2 2) italic) (justify bottom))
  (tbtext Изм (name text3:Text) (pos 184.5 31.5) (font (size 2 2) italic) (justify bottom))
  (line (name segm21:Line) (start 184.989 40.002) (end 119.989 40.002) (linewidth 0.2) (repeat 3) (incry 5))
  (tbtext "Т. Контр." (name text4:Text) (pos 184.0004 16) (font (size 2 2) italic) (justify bottom))
  (tbtext Пров. (name text5:Text) (pos 184 21) (font (size 2 2) italic) (justify bottom))
  (tbtext %C3 (name text6:Text) (pos 167 1) (font (size 2 2) italic) (justify bottom) (maxlen 30) (maxheight 5))
  (tbtext %C2 (name text7:Text) (pos 167 21) (font (size 2 2) italic) (justify bottom) (maxlen 30) (maxheight 5))
  (tbtext %T (name text8:Text) (pos 85 27.5) (font (size 4 4) italic) (justify center) (maxlen 70) (maxheight 25))
  (tbtext Дата (name text9:Text) (pos 125.0004 32.5) (font (size 2 2) italic) (justify center))
  (tbtext Подп. (name text10:Text) (pos 137.5004 32.5) (font (size 2 2) italic) (justify center))
  (tbtext "N докум." (name text11:Text) (pos 156.5004 32.5) (font (size 2 2) italic) (justify center))
  (tbtext Масштаб (name text12:Text) (pos 9.000400000000013 37.5) (font (size 2 2) italic) (justify center))
  (tbtext Масса (name text13:Text) (pos 26.50040000000001 37.5) (font (size 2 2) italic) (justify center))
  (tbtext Лит (name text14:Text) (pos 42.50040000000001 37.5) (font (size 2 2) italic) (justify center))
  (tbtext %N (name text15:Text) (pos 9.000400000000013 16.5) (font (size 2 2) italic) (justify bottom))
  (tbtext Листов (name text16:Text) (pos 29.00040000000001 16.5) (font (size 2 2) italic) (justify bottom))
  (tbtext %S (name text17:Text) (pos 37.50040000000001 16.5) (font (size 2 2) italic) (justify bottom))
  (tbtext Лист (name text18:Text) (pos 49.00040000000001 16.5) (font (size 2 2) italic) (justify bottom))
  (tbtext %C1 (name text19:Text) (pos 167 26) (font (size 2 2) italic) (justify bottom) (maxlen 30) (maxheight 5))
  (tbtext "Модуль управления\nгенератора-анализатора сигналов" (name text20:Text) (pos 60 47.5) (font (size 3 3) italic) (justify center) (maxlen 120) (maxheight 15))
  (tbtext Утв. (name text21:Text) (pos 184.0004 1) (font (size 2 2) italic) (justify bottom))
  (tbtext "Н. Контр." (name text22:Text) (pos 184.0004 6) (font (size 2 2) italic) (justify bottom))
)
